................................................................................................................................................
----------------------------------------------------------------------
Ran 144 tests in 6.938s

OK
Name             Stmts   Miss Branch BrPart  Cover   Missing
------------------------------------------------------------
Collatz.py          64     11     30      2    82%   36-43, 87-91, 32->36, 86->87
TestCollatz.py     443      0      0      0   100%
------------------------------------------------------------
TOTAL              507     11     30      2    97%
