1 10 20
100 200 125
201 210 89
900 1000 174
379 116 144
565 44 144
354 854 171
676 741 171
460 27 144
445 202 144
295 349 144
906 306 179
651 553 145
181 964 179
625 923 179
694 824 171
108 563 144
508 941 179
835 463 171
52 218 125
440 643 142
68 968 179
390 428 134
95 997 179
814 473 171
122 857 171
358 604 142
878 276 179
995 667 179
502 518 124
223 216 115
669 501 145
171 330 144
948 606 179
143 790 171
717 484 171
747 713 140
188 516 144
227 775 171
90 468 144
911 338 179
422 765 171
42 670 145
666 52 145
530 585 137
547 765 171
819 644 171
440 998 179
153 40 122
122 757 171
5 502 144
353 944 179
6 463 144
595 482 142
8388 3879 262
7708 4549 262
2245 892 183
4849 6953 262
3835 1818 238
9633 3784 262
3332 8881 262
8192 4852 262
7897 2805 262
3828 6981 262
4992 6391 262
1502 5317 238
688 390 145
1284 4496 238
6296 2368 262
4806 1103 238
8483 1372 262
4235 8566 262
7822 1799 262
3992 3951 145
2074 3171 217
8665 3519 262
5749 6669 262
337 9793 262
530 7487 262
9403 1932 262
5094 2060 238
8179 2642 262
3472 2761 217
4855 1979 238
795 795 104
232 232 22
361 361 46
240 240 22
164 164 112
146 146 117
387 387 121
50 50 25
501 501 111
488 488 23
602 602 18
443 443 54
573 573 106
10 10 7
27 27 112
300 300 17
421 421 41
531 531 124
562 562 44
775 775 153
